<?xml version="1.0" encoding="utf-8"?>
<!-- Generator: Adobe Illustrator 16.0.0, SVG Export Plug-In . SVG Version: 6.00 Build 0)  -->
<!DOCTYPE svg PUBLIC "-//W3C//DTD SVG 1.1//EN" "http://www.w3.org/Graphics/SVG/1.1/DTD/svg11.dtd">
<svg version="1.1" id="Layer_1" xmlns="http://www.w3.org/2000/svg" xmlns:xlink="http://www.w3.org/1999/xlink" x="0px" y="0px"
	 width="120px" height="120px" viewBox="0 0 120 120" enable-background="new 0 0 120 120" xml:space="preserve">
<g>
	<path fill="#005EB8" d="M110.361,25.422c4.762-6.373,7.611-12.989,7.625-17.716c-0.006-1.531-0.313-2.728-0.896-3.618
		c-0.063-0.109-0.229-0.395-0.526-0.676c-0.295-0.293-0.562-0.449-0.618-0.481c-0.936-0.623-2.137-0.925-3.667-0.925
		c-4.717,0.009-11.334,2.856-17.709,7.625c-5.151,3.855-10.306,9.286-17.438,16.806c-1.211,1.274-2.483,2.615-3.83,4.021
		l-13.816-4.141l0.041-0.04c0.574-0.58,0.9-1.378,0.893-2.162c0.008-0.828-0.326-1.626-0.902-2.2l-2.495-2.499
		c-0.577-0.581-1.372-0.913-2.196-0.913c-0.832,0-1.608,0.32-2.188,0.907L48.9,23.145l-1.977-0.59
		c0.426-0.541,0.662-1.216,0.654-1.882c0.008-0.84-0.317-1.621-0.901-2.202l-2.507-2.507c-0.572-0.574-1.365-0.903-2.196-0.903
		c-0.828,0-1.603,0.323-2.177,0.907l-3.426,3.424l-14.049-4.208c-0.315-0.093-0.647-0.143-1.004-0.143
		c-0.998,0.012-1.923,0.382-2.598,1.052l-4.939,4.94c-0.561,0.561-0.875,1.319-0.869,2.038c-0.018,1.06,0.568,2.038,1.507,2.541
		l29.543,16.504c0.145,0.081,0.563,0.391,0.718,0.545l8.422,8.421c-7.879,8.3-14.896,16.337-20.366,23.33
		c-0.511,0.65-0.994,1.283-1.47,1.912L8.41,74.248c-0.111-0.014-0.235-0.022-0.394-0.022c-1.048,0.021-2.072,0.437-2.832,1.17
		l-2.303,2.302C2.313,78.253,1.992,79.005,2,79.732c-0.018,1.107,0.653,2.135,1.661,2.584l16.079,7.635
		c0.139,0.07,0.499,0.326,0.616,0.441l1.334,1.326c-0.418,1.176-0.629,2.195-0.642,3.092c-0.004,1.197,0.382,2.223,1.121,2.963
		l0.057,0.049l0.016,0.012c0.758,0.734,1.741,1.109,2.957,1.109c0.875-0.014,1.885-0.223,3.066-0.639l1.354,1.354
		c0.105,0.111,0.357,0.463,0.422,0.604l7.62,16.043c0.466,1.024,1.469,1.688,2.563,1.688h0.016c0.757,0,1.479-0.304,2.032-0.857
		l2.358-2.367c0.699-0.736,1.111-1.752,1.127-2.822c0-0.131-0.006-0.232-0.01-0.289L43.665,88.72
		c0.626-0.471,1.26-0.957,1.911-1.463c7.003-5.479,15.042-12.504,23.327-20.369l8.429,8.438c0.137,0.131,0.455,0.549,0.549,0.723
		l16.473,29.49c0.504,0.953,1.473,1.541,2.545,1.541c0.768,0,1.496-0.304,2.055-0.865l4.976-4.971
		c0.645-0.675,1.008-1.593,1.018-2.595c0-0.336-0.048-0.664-0.135-0.972l-4.209-14.051l3.424-3.432
		c0.577-0.572,0.904-1.367,0.904-2.186c0-0.822-0.319-1.596-0.899-2.184l-2.511-2.51c-0.574-0.576-1.369-0.904-2.188-0.904
		c-0.691,0-1.369,0.231-1.897,0.649l-0.588-1.97l3.735-3.735c0.574-0.577,0.901-1.373,0.901-2.192c0-0.826-0.319-1.601-0.901-2.181
		l-2.498-2.499c-0.578-0.585-1.377-0.915-2.199-0.915c-0.825,0-1.625,0.334-2.189,0.91l-0.025,0.024l-4.14-13.815
		c1.431-1.362,2.787-2.659,4.084-3.882C101.105,35.696,106.516,30.563,110.361,25.422z"/>
</g>
</svg>
